; Engine configuration file.
; It's best edited using the editor UI and not directly,
; since the parameters that go here are not all obvious.
;
; Format:
;   [section] ; section goes between []
;   param=value ; assign values to parameters

config_version=4

_global_script_classes=[ {
"base": "Node",
"class": "Dialogic",
"language": "GDScript",
"path": "res://addons/dialogic/Other/DialogicClass.gd"
}, {
"base": "Control",
"class": "DialogicBackgroundMusic",
"language": "GDScript",
"path": "res://addons/dialogic/Nodes/BackgroundMusic.gd"
}, {
"base": "Node",
"class": "DialogicDefinitionsUtil",
"language": "GDScript",
"path": "res://addons/dialogic/Other/DialogicDefinitionsUtil.gd"
}, {
"base": "Reference",
"class": "DialogicResources",
"language": "GDScript",
"path": "res://addons/dialogic/Other/DialogicResources.gd"
}, {
"base": "Reference",
"class": "DialogicUtil",
"language": "GDScript",
"path": "res://addons/dialogic/Other/DialogicUtil.gd"
} ]
_global_script_class_icons={
"Dialogic": "",
"DialogicBackgroundMusic": "",
"DialogicDefinitionsUtil": "",
"DialogicResources": "",
"DialogicUtil": ""
}

[application]

config/name="Helm108 - Carrots"
run/main_scene="res://src/scenes/CozyScene.tscn"
boot_splash/image="res://src/assets/logo.png"
boot_splash/bg_color=Color( 0.12549, 0.145098, 0.192157, 1 )
config/icon="res://icon.png"

[autoload]

DialogicSingleton="*res://addons/dialogic/Other/DialogicSingleton.gd"
Utils="*res://src/scripts/singletons/Utils.gd"
Events="*res://src/scripts/singletons/Events.gd"
Game="*res://src/scripts/singletons/Game.gd"

[display]

window/stretch/mode="viewport"
window/stretch/aspect="keep"

[editor_plugins]

enabled=PoolStringArray( "res://addons/dialogic/plugin.cfg" )

[gdnative]

singletons=[  ]

[global]

scale=false

[input]

walk_left={
"deadzone": 0.5,
"events": [ Object(InputEventKey,"resource_local_to_scene":false,"resource_name":"","device":0,"alt":false,"shift":false,"control":false,"meta":false,"command":false,"pressed":false,"scancode":65,"physical_scancode":0,"unicode":0,"echo":false,"script":null)
, Object(InputEventKey,"resource_local_to_scene":false,"resource_name":"","device":0,"alt":false,"shift":false,"control":false,"meta":false,"command":false,"pressed":false,"scancode":16777231,"physical_scancode":0,"unicode":0,"echo":false,"script":null)
 ]
}
walk_right={
"deadzone": 0.5,
"events": [ Object(InputEventKey,"resource_local_to_scene":false,"resource_name":"","device":0,"alt":false,"shift":false,"control":false,"meta":false,"command":false,"pressed":false,"scancode":68,"physical_scancode":0,"unicode":0,"echo":false,"script":null)
, Object(InputEventKey,"resource_local_to_scene":false,"resource_name":"","device":0,"alt":false,"shift":false,"control":false,"meta":false,"command":false,"pressed":false,"scancode":16777233,"physical_scancode":0,"unicode":0,"echo":false,"script":null)
 ]
}
walk_up={
"deadzone": 0.5,
"events": [ Object(InputEventKey,"resource_local_to_scene":false,"resource_name":"","device":0,"alt":false,"shift":false,"control":false,"meta":false,"command":false,"pressed":false,"scancode":87,"physical_scancode":0,"unicode":0,"echo":false,"script":null)
, Object(InputEventKey,"resource_local_to_scene":false,"resource_name":"","device":0,"alt":false,"shift":false,"control":false,"meta":false,"command":false,"pressed":false,"scancode":16777232,"physical_scancode":0,"unicode":0,"echo":false,"script":null)
 ]
}
walk_down={
"deadzone": 0.5,
"events": [ Object(InputEventKey,"resource_local_to_scene":false,"resource_name":"","device":0,"alt":false,"shift":false,"control":false,"meta":false,"command":false,"pressed":false,"scancode":83,"physical_scancode":0,"unicode":0,"echo":false,"script":null)
, Object(InputEventKey,"resource_local_to_scene":false,"resource_name":"","device":0,"alt":false,"shift":false,"control":false,"meta":false,"command":false,"pressed":false,"scancode":16777234,"physical_scancode":0,"unicode":0,"echo":false,"script":null)
 ]
}
interact={
"deadzone": 0.5,
"events": [ Object(InputEventKey,"resource_local_to_scene":false,"resource_name":"","device":0,"alt":false,"shift":false,"control":false,"meta":false,"command":false,"pressed":false,"scancode":69,"physical_scancode":0,"unicode":0,"echo":false,"script":null)
 ]
}
select_item_1={
"deadzone": 0.5,
"events": [ Object(InputEventKey,"resource_local_to_scene":false,"resource_name":"","device":0,"alt":false,"shift":false,"control":false,"meta":false,"command":false,"pressed":false,"scancode":49,"physical_scancode":0,"unicode":0,"echo":false,"script":null)
 ]
}
select_item_2={
"deadzone": 0.5,
"events": [ Object(InputEventKey,"resource_local_to_scene":false,"resource_name":"","device":0,"alt":false,"shift":false,"control":false,"meta":false,"command":false,"pressed":false,"scancode":50,"physical_scancode":0,"unicode":0,"echo":false,"script":null)
 ]
}
select_item_3={
"deadzone": 0.5,
"events": [ Object(InputEventKey,"resource_local_to_scene":false,"resource_name":"","device":0,"alt":false,"shift":false,"control":false,"meta":false,"command":false,"pressed":false,"scancode":51,"physical_scancode":0,"unicode":0,"echo":false,"script":null)
 ]
}
select_item_4={
"deadzone": 0.5,
"events": [ Object(InputEventKey,"resource_local_to_scene":false,"resource_name":"","device":0,"alt":false,"shift":false,"control":false,"meta":false,"command":false,"pressed":false,"scancode":52,"physical_scancode":0,"unicode":0,"echo":false,"script":null)
 ]
}

[physics]

common/enable_pause_aware_picking=true

[rendering]

quality/driver/driver_name="GLES2"
2d/snapping/use_gpu_pixel_snap=true
vram_compression/import_etc=true
vram_compression/import_etc2=false
quality/dynamic_fonts/use_oversampling=false

[tiled_importer]

enable_json_format=false
