[gd_scene load_steps=3 format=2]

[ext_resource path="res://src/scripts/z-index.gd" type="Script" id=1]
[ext_resource path="res://src/components/maps/CozyGround.tres" type="TileSet" id=2]

[node name="Farm" type="Node2D"]
scale = Vector2( 2, 2 )

[node name="Ground" type="TileMap" parent="."]
tile_set = ExtResource( 2 )
cell_size = Vector2( 16, 16 )
show_collision = true
format = 1
tile_data = PoolIntArray( -65533, 58, 0, -65532, 58, 1, -65531, 58, 1, -65530, 58, 1, -65529, 58, 1, -65528, 58, 1, -65527, 58, 1, -65526, 58, 1, -65525, 58, 1, -65524, 58, 1, -65523, 58, 1, -65522, 58, 1, -65521, 58, 1, -65520, 58, 1, -65519, 58, 1, -65518, 58, 1, -65517, 58, 1, -65516, 58, 1, -65515, 58, 1, -65514, 58, 1, -65513, 58, 1, -65512, 58, 1, -65511, 58, 1, -65510, 58, 1, -65509, 58, 1, -65508, 58, 1, -65507, 58, 1, -65506, 58, 1, -65505, 58, 2, 2, 58, 0, 3, 58, 131076, 4, 58, 65537, 5, 58, 65537, 6, 58, 65537, 7, 58, 65537, 8, 58, 65537, 9, 58, 65537, 10, 58, 65537, 11, 58, 65537, 12, 58, 65537, 13, 58, 65537, 14, 58, 65537, 15, 58, 65537, 16, 58, 65537, 17, 58, 65537, 18, 58, 65537, 19, 58, 65537, 20, 58, 65537, 21, 58, 65537, 22, 58, 65537, 23, 58, 65537, 24, 58, 65537, 25, 58, 65537, 26, 58, 65537, 27, 58, 65537, 28, 58, 65537, 29, 58, 65537, 30, 58, 65537, 31, 58, 65538, 65538, 58, 65536, 65539, 58, 65537, 65540, 58, 65537, 65541, 58, 65537, 65542, 58, 65537, 65543, 58, 65537, 65544, 58, 65537, 65545, 58, 65537, 65546, 58, 65537, 65547, 58, 65537, 65548, 58, 65537, 65549, 58, 65537, 65550, 58, 65537, 65551, 58, 65537, 65552, 58, 65537, 65553, 58, 65537, 65554, 58, 65537, 65555, 58, 65537, 65556, 58, 65537, 65557, 58, 65537, 65558, 58, 65537, 65559, 58, 65537, 65560, 58, 65537, 65561, 58, 65537, 65562, 58, 65537, 65563, 58, 65537, 65564, 58, 65537, 65565, 58, 65537, 65566, 58, 65537, 65567, 58, 65538, 131073, 58, 0, 131074, 58, 131076, 131075, 58, 65537, 131076, 58, 65537, 131077, 58, 65537, 131078, 58, 65537, 131079, 58, 65537, 131080, 58, 65537, 131081, 58, 65537, 131082, 58, 65537, 131083, 58, 65537, 131084, 58, 65537, 131085, 58, 65537, 131086, 58, 65537, 131087, 58, 65537, 131088, 58, 65537, 131089, 58, 65537, 131090, 58, 65537, 131091, 58, 65537, 131092, 58, 65537, 131093, 58, 65537, 131094, 58, 65537, 131095, 58, 65537, 131096, 58, 65537, 131097, 58, 65537, 131098, 58, 65537, 131099, 58, 65537, 131100, 58, 65537, 131101, 58, 65537, 131102, 58, 65537, 131103, 58, 65538, 196609, 58, 65536, 196610, 58, 65537, 196611, 58, 65537, 196612, 58, 65537, 196613, 58, 65537, 196614, 58, 65537, 196615, 58, 65537, 196616, 58, 65537, 196617, 58, 65537, 196618, 58, 65537, 196619, 58, 65537, 196620, 58, 65537, 196621, 58, 65537, 196622, 58, 65537, 196623, 58, 65537, 196624, 58, 65537, 196625, 58, 65537, 196626, 58, 65537, 196627, 58, 65537, 196628, 58, 65537, 196629, 58, 65537, 196630, 58, 65537, 196631, 58, 65537, 196632, 58, 65537, 196633, 58, 65537, 196634, 58, 65537, 196635, 58, 65537, 196636, 58, 65537, 196637, 58, 65537, 196638, 58, 65537, 196639, 58, 65538, 262145, 58, 65536, 262146, 58, 65537, 262147, 58, 65537, 262148, 58, 65537, 262149, 58, 65537, 262150, 58, 65537, 262151, 58, 65537, 262152, 58, 65537, 262153, 58, 65537, 262154, 58, 65537, 262155, 58, 65537, 262156, 58, 65537, 262157, 58, 65537, 262158, 58, 65537, 262159, 58, 65537, 262160, 58, 65537, 262161, 58, 65537, 262162, 58, 65537, 262163, 58, 65537, 262164, 58, 65537, 262165, 58, 65537, 262166, 58, 65537, 262167, 58, 65537, 262168, 58, 65537, 262169, 58, 65537, 262170, 58, 65537, 262171, 58, 65537, 262172, 58, 65537, 262173, 58, 65537, 262174, 58, 65537, 262175, 58, 65538, 327681, 58, 65536, 327682, 58, 65537, 327683, 58, 65537, 327684, 58, 65537, 327685, 58, 65537, 327686, 58, 65537, 327687, 58, 65537, 327688, 58, 65537, 327689, 58, 65537, 327690, 58, 65537, 327691, 58, 65537, 327692, 58, 65537, 327693, 58, 65537, 327694, 58, 65537, 327695, 58, 65537, 327696, 58, 65537, 327697, 58, 65537, 327698, 58, 65537, 327699, 58, 65537, 327700, 58, 65537, 327701, 58, 65537, 327702, 58, 65537, 327703, 58, 65537, 327704, 58, 65537, 327705, 58, 65537, 327706, 58, 65537, 327707, 58, 65537, 327708, 58, 65537, 327709, 58, 65537, 327710, 58, 65537, 327711, 58, 65538, 393217, 58, 65536, 393218, 58, 65537, 393219, 58, 65537, 393220, 58, 65537, 393221, 58, 65537, 393222, 58, 65537, 393223, 58, 65537, 393224, 58, 65537, 393225, 58, 65537, 393226, 58, 65537, 393227, 58, 65537, 393228, 58, 65537, 393229, 58, 65537, 393230, 58, 65537, 393231, 58, 65537, 393232, 58, 65537, 393233, 58, 65537, 393234, 58, 65537, 393235, 58, 65537, 393236, 58, 65537, 393237, 58, 65537, 393238, 58, 65537, 393239, 58, 65537, 393240, 58, 65537, 393241, 58, 65537, 393242, 58, 65537, 393243, 58, 65537, 393244, 58, 65537, 393245, 58, 65537, 393246, 58, 65537, 393247, 58, 65538, 458753, 58, 131072, 458754, 58, 65540, 458755, 58, 65537, 458756, 58, 65537, 458757, 58, 65537, 458758, 58, 65537, 458759, 58, 65537, 458760, 58, 65537, 458761, 58, 65537, 458762, 58, 65537, 458763, 58, 65537, 458764, 58, 65537, 458765, 58, 65537, 458766, 58, 65537, 458767, 58, 65537, 458768, 58, 65537, 458769, 58, 65537, 458770, 58, 65537, 458771, 58, 65537, 458772, 58, 65537, 458773, 58, 65537, 458774, 58, 65537, 458775, 58, 65537, 458776, 58, 65537, 458777, 58, 65537, 458778, 58, 65537, 458779, 58, 65537, 458780, 58, 65537, 458781, 58, 65537, 458782, 58, 65537, 458783, 58, 65538, 524290, 58, 131072, 524291, 58, 65540, 524292, 58, 65537, 524293, 58, 65537, 524294, 58, 65537, 524295, 58, 65537, 524296, 58, 65537, 524297, 58, 65537, 524298, 58, 65537, 524299, 58, 65537, 524300, 58, 65537, 524301, 58, 65537, 524302, 58, 65537, 524303, 58, 65537, 524304, 58, 65537, 524305, 58, 65537, 524306, 58, 65537, 524307, 58, 65537, 524308, 58, 65537, 524309, 58, 65537, 524310, 58, 65537, 524311, 58, 65537, 524312, 58, 65537, 524313, 58, 65537, 524314, 58, 65537, 524315, 58, 65537, 524316, 58, 65537, 524317, 58, 65537, 524318, 58, 65537, 524319, 58, 131075, 524320, 58, 2, 589827, 58, 65536, 589828, 58, 65537, 589829, 58, 65537, 589830, 58, 65537, 589831, 58, 65537, 589832, 58, 65537, 589833, 58, 65537, 589834, 58, 65537, 589835, 58, 65537, 589836, 58, 65537, 589837, 58, 65537, 589838, 58, 65537, 589839, 58, 65537, 589840, 58, 65537, 589841, 58, 65537, 589842, 58, 65537, 589843, 58, 65537, 589844, 58, 65537, 589845, 58, 65537, 589846, 58, 65537, 589847, 58, 65537, 589848, 58, 65537, 589849, 58, 65537, 589850, 58, 65537, 589851, 58, 65537, 589852, 58, 65537, 589853, 58, 65537, 589854, 58, 65537, 589855, 58, 65537, 589856, 58, 65538, 655363, 58, 65536, 655364, 58, 65537, 655365, 58, 65537, 655366, 58, 65537, 655367, 58, 65537, 655368, 58, 65537, 655369, 58, 65537, 655370, 58, 65537, 655371, 58, 65537, 655372, 58, 65537, 655373, 58, 65537, 655374, 58, 65537, 655375, 58, 65537, 655376, 58, 65537, 655377, 58, 65537, 655378, 58, 65537, 655379, 58, 65537, 655380, 58, 65537, 655381, 58, 65537, 655382, 58, 65537, 655383, 58, 65537, 655384, 58, 65537, 655385, 58, 65537, 655386, 58, 65537, 655387, 58, 65537, 655388, 58, 65537, 655389, 58, 65537, 655390, 58, 65537, 655391, 58, 65537, 655392, 58, 131075, 655393, 58, 2, 720899, 58, 65536, 720900, 58, 65537, 720901, 58, 65537, 720902, 58, 65537, 720903, 58, 65537, 720904, 58, 65537, 720905, 58, 65537, 720906, 58, 65537, 720907, 58, 65537, 720908, 58, 65537, 720909, 58, 65537, 720910, 58, 65537, 720911, 58, 65537, 720912, 58, 65537, 720913, 58, 65537, 720914, 58, 65537, 720915, 58, 65537, 720916, 58, 65537, 720917, 58, 65537, 720918, 58, 65537, 720919, 58, 65537, 720920, 58, 65537, 720921, 58, 65537, 720922, 58, 65537, 720923, 58, 65537, 720924, 58, 65537, 720925, 58, 65537, 720926, 58, 65537, 720927, 58, 65537, 720928, 58, 65537, 720929, 58, 65538, 786435, 58, 65536, 786436, 58, 65537, 786437, 58, 65537, 786438, 58, 65537, 786439, 58, 65537, 786440, 58, 65537, 786441, 58, 65537, 786442, 58, 65537, 786443, 58, 65537, 786444, 58, 65537, 786445, 58, 65537, 786446, 58, 65537, 786447, 58, 65537, 786448, 58, 65537, 786449, 58, 65537, 786450, 58, 65537, 786451, 58, 65537, 786452, 58, 65537, 786453, 58, 65537, 786454, 58, 65537, 786455, 58, 65537, 786456, 58, 65537, 786457, 58, 65537, 786458, 58, 65537, 786459, 58, 65537, 786460, 58, 65537, 786461, 58, 65537, 786462, 58, 65537, 786463, 58, 65537, 786464, 58, 65537, 786465, 58, 65538, 851971, 58, 65536, 851972, 58, 65537, 851973, 58, 65537, 851974, 58, 65537, 851975, 58, 65537, 851976, 58, 65537, 851977, 58, 65537, 851978, 58, 65537, 851979, 58, 65537, 851980, 58, 65537, 851981, 58, 65537, 851982, 58, 65537, 851983, 58, 65537, 851984, 58, 65537, 851985, 58, 65537, 851986, 58, 65537, 851987, 58, 65537, 851988, 58, 65537, 851989, 58, 65537, 851990, 58, 65537, 851991, 58, 65537, 851992, 58, 65537, 851993, 58, 65537, 851994, 58, 65537, 851995, 58, 65537, 851996, 58, 65537, 851997, 58, 65537, 851998, 58, 65537, 851999, 58, 65537, 852000, 58, 65537, 852001, 58, 65538, 917507, 58, 65536, 917508, 58, 65537, 917509, 58, 65537, 917510, 58, 65537, 917511, 58, 65537, 917512, 58, 65537, 917513, 58, 65537, 917514, 58, 65537, 917515, 58, 65537, 917516, 58, 65537, 917517, 58, 65537, 917518, 58, 65537, 917519, 58, 65537, 917520, 58, 65537, 917521, 58, 65537, 917522, 58, 65537, 917523, 58, 65537, 917524, 58, 65537, 917525, 58, 65537, 917526, 58, 65537, 917527, 58, 65537, 917528, 58, 65537, 917529, 58, 65537, 917530, 58, 65537, 917531, 58, 65537, 917532, 58, 65537, 917533, 58, 65537, 917534, 58, 65537, 917535, 58, 65537, 917536, 58, 65537, 917537, 58, 65538, 983043, 58, 65536, 983044, 58, 65537, 983045, 58, 65537, 983046, 58, 65537, 983047, 58, 65537, 983048, 58, 65537, 983049, 58, 65537, 983050, 58, 65537, 983051, 58, 65537, 983052, 58, 65537, 983053, 58, 65537, 983054, 58, 65537, 983055, 58, 65537, 983056, 58, 65537, 983057, 58, 65537, 983058, 58, 65537, 983059, 58, 65537, 983060, 58, 65537, 983061, 58, 65537, 983062, 58, 65537, 983063, 58, 65537, 983064, 58, 65537, 983065, 58, 65537, 983066, 58, 65537, 983067, 58, 65537, 983068, 58, 65537, 983069, 58, 65537, 983070, 58, 65537, 983071, 58, 65537, 983072, 58, 65537, 983073, 58, 65538, 1048579, 58, 65536, 1048580, 58, 65537, 1048581, 58, 65537, 1048582, 58, 65537, 1048583, 58, 65537, 1048584, 58, 65537, 1048585, 58, 65537, 1048586, 58, 65537, 1048587, 58, 65537, 1048588, 58, 65537, 1048589, 58, 65537, 1048590, 58, 65537, 1048591, 58, 65537, 1048592, 58, 65537, 1048593, 58, 65537, 1048594, 58, 65537, 1048595, 58, 65537, 1048596, 58, 65537, 1048597, 58, 65537, 1048598, 58, 65537, 1048599, 58, 65537, 1048600, 58, 65537, 1048601, 58, 65537, 1048602, 58, 65537, 1048603, 58, 65537, 1048604, 58, 65537, 1048605, 58, 65537, 1048606, 58, 65537, 1048607, 58, 65537, 1048608, 58, 65537, 1048609, 58, 65538, 1114113, 58, 0, 1114114, 58, 1, 1114115, 58, 131076, 1114116, 58, 65537, 1114117, 58, 65537, 1114118, 58, 65537, 1114119, 58, 65537, 1114120, 58, 65537, 1114121, 58, 65537, 1114122, 58, 65537, 1114123, 58, 65537, 1114124, 58, 65537, 1114125, 58, 65537, 1114126, 58, 65537, 1114127, 58, 65537, 1114128, 58, 65537, 1114129, 58, 65537, 1114130, 58, 65537, 1114131, 58, 65537, 1114132, 58, 65537, 1114133, 58, 65537, 1114134, 58, 65537, 1114135, 58, 65537, 1114136, 58, 65537, 1114137, 58, 65537, 1114138, 58, 65537, 1114139, 58, 65537, 1114140, 58, 65537, 1114141, 58, 65537, 1114142, 58, 65537, 1114143, 58, 65537, 1114144, 58, 65537, 1114145, 58, 65538, 1179649, 58, 65536, 1179650, 58, 65537, 1179651, 58, 65537, 1179652, 58, 65537, 1179653, 58, 65537, 1179654, 58, 65537, 1179655, 58, 65537, 1179656, 58, 65537, 1179657, 58, 65537, 1179658, 58, 65537, 1179659, 58, 65537, 1179660, 58, 65537, 1179661, 58, 65537, 1179662, 58, 65537, 1179663, 58, 65537, 1179664, 58, 65537, 1179665, 58, 65537, 1179666, 58, 65537, 1179667, 58, 65537, 1179668, 58, 65537, 1179669, 58, 65537, 1179670, 58, 65537, 1179671, 58, 65537, 1179672, 58, 65537, 1179673, 58, 65537, 1179674, 58, 65537, 1179675, 58, 65537, 1179676, 58, 65537, 1179677, 58, 65537, 1179678, 58, 65537, 1179679, 58, 65537, 1179680, 58, 65537, 1179681, 58, 65538, 1245185, 58, 131072, 1245186, 58, 131073, 1245187, 58, 131073, 1245188, 58, 131073, 1245189, 58, 131073, 1245190, 58, 131073, 1245191, 58, 131073, 1245192, 58, 131073, 1245193, 58, 131073, 1245194, 58, 131073, 1245195, 58, 131073, 1245196, 58, 131073, 1245197, 58, 131073, 1245198, 58, 131073, 1245199, 58, 131073, 1245200, 58, 131073, 1245201, 58, 131073, 1245202, 58, 131073, 1245203, 58, 131073, 1245204, 58, 131073, 1245205, 58, 131073, 1245206, 58, 131073, 1245207, 58, 131073, 1245208, 58, 131073, 1245209, 58, 131073, 1245210, 58, 131073, 1245211, 58, 131073, 1245212, 58, 131073, 1245213, 58, 131073, 1245214, 58, 131073, 1245215, 58, 131073, 1245216, 58, 131073, 1245217, 58, 131074 )

[node name="Ground2" type="TileMap" parent="."]
visible = false
tile_set = ExtResource( 2 )
cell_size = Vector2( 16, 16 )
show_collision = true
format = 1
tile_data = PoolIntArray( -65532, 5, 65539, -65531, 5, 131073, -65530, 5, 65540, -65529, 1, 65539, -65528, 1, 65539, -65527, 1, 65539, -65526, 1, 65539, -65525, 1, 65539, -65524, 1, 65539, -65523, 1, 65539, -65522, 54, 1, 3, 5, 65539, 4, 5, 65538, 5, 5, 131079, 6, 5, 131072, 7, 5, 131073, 8, 5, 131073, 9, 5, 131073, 10, 5, 131073, 11, 5, 131073, 12, 5, 65540, 65540, 5, 65538, 65541, 5, 3, 65542, 5, 131078, 65543, 5, 131079, 65544, 5, 131077, 65545, 5, 3, 65546, 5, 131079, 65547, 5, 131078, 65548, 5, 65536, 131076, 5, 65538, 131077, 5, 131077, 131078, 5, 131078, 131079, 5, 131078, 131080, 5, 131078, 131081, 5, 3, 131082, 5, 131077, 131083, 5, 131077, 131084, 5, 65536, 196612, 5, 65538, 196613, 5, 131078, 196614, 5, 131079, 196615, 5, 131077, 196616, 5, 131078, 196617, 5, 131079, 196618, 5, 131078, 196619, 5, 131077, 196620, 5, 65536, 262147, 5, 65539, 262148, 5, 131074, 262149, 5, 131077, 262150, 5, 131079, 262151, 5, 131079, 262152, 5, 131079, 262153, 5, 131078, 262154, 5, 131079, 262155, 5, 131077, 262156, 5, 131072, 262157, 5, 65540, 327683, 5, 131075, 327684, 5, 1, 327685, 5, 1, 327686, 5, 2, 327687, 5, 0, 327688, 5, 1, 327689, 5, 1, 327690, 5, 2, 327691, 5, 0, 327692, 5, 1, 327693, 5, 131076, 393222, 5, 131075, 393223, 5, 131076, 393226, 5, 131075, 393227, 5, 131076 )

[node name="Water" type="TileMap" parent="."]
tile_set = ExtResource( 2 )
cell_size = Vector2( 16, 16 )
format = 1
tile_data = PoolIntArray( -1, 7, 65539, -65536, 7, 131073, -65535, 7, 131073, -65534, 7, 131073, -65533, 7, 65540, 65535, 7, 65538, 0, 7, 3, 1, 7, 3, 2, 7, 0, 3, 7, 131076, 22, 7, 65539, 23, 7, 131073, 24, 7, 131073, 25, 7, 131073, 26, 7, 65540, 131071, 7, 65538, 65536, 7, 3, 65537, 7, 3, 65538, 7, 65536, 65557, 7, 65539, 65558, 7, 131074, 65559, 7, 3, 65560, 7, 3, 65561, 7, 3, 65562, 7, 65536, 196607, 7, 65538, 131072, 7, 3, 131073, 7, 3, 131074, 7, 131072, 131075, 7, 65540, 131093, 7, 131075, 131094, 7, 1, 131095, 7, 1, 131096, 7, 1, 131097, 7, 2, 131098, 7, 131072, 131099, 7, 65540, 262143, 7, 65538, 196608, 7, 3, 196609, 7, 0, 196610, 7, 1, 196611, 7, 131076, 196633, 7, 131075, 196634, 7, 1, 196635, 7, 131076, 327679, 7, 65538, 262144, 7, 3, 262145, 7, 65536, 393215, 7, 65538, 327680, 7, 3, 327681, 7, 65536, 458751, 7, 65538, 393216, 7, 3, 393217, 7, 131072, 393218, 7, 65540, 524287, 7, 65538, 458752, 7, 3, 458753, 7, 3, 458754, 7, 65536, 589823, 7, 65538, 524288, 7, 3, 524289, 7, 3, 524290, 7, 131072, 524291, 7, 65540, 655359, 7, 65538, 589824, 7, 3, 589825, 7, 3, 589826, 7, 3, 589827, 7, 65536, 720895, 7, 65538, 655360, 7, 3, 655361, 7, 3, 655362, 7, 3, 655363, 7, 65536, 786431, 7, 65538, 720896, 7, 3, 720897, 7, 3, 720898, 7, 3, 720899, 7, 131072, 720900, 7, 65540, 851967, 7, 65538, 786432, 7, 3, 786433, 7, 3, 786434, 7, 3, 786435, 7, 3, 786436, 7, 65536, 917503, 7, 65538, 851968, 7, 3, 851969, 7, 3, 851970, 7, 3, 851971, 7, 3, 851972, 7, 131072, 851973, 7, 131073, 851974, 7, 65540, 851976, 7, 65539, 851977, 7, 131073, 851978, 7, 131073, 851979, 7, 131073, 851980, 7, 65540, 983039, 7, 65538, 917504, 7, 3, 917505, 7, 3, 917506, 7, 3, 917507, 7, 3, 917508, 7, 3, 917509, 7, 3, 917510, 7, 131072, 917511, 7, 131073, 917512, 7, 131074, 917513, 7, 3, 917514, 7, 3, 917515, 7, 3, 917516, 7, 131072, 917517, 7, 65540, 917520, 7, 65539, 917521, 7, 131073, 917522, 7, 65540, 1048575, 7, 65538, 983040, 7, 3, 983041, 7, 3, 983042, 7, 3, 983043, 7, 3, 983044, 7, 3, 983045, 7, 3, 983046, 7, 3, 983047, 7, 3, 983048, 7, 3, 983049, 7, 3, 983050, 7, 3, 983051, 7, 3, 983052, 7, 3, 983053, 7, 65536, 983056, 7, 65538, 983057, 7, 3, 983058, 7, 65536, 1114111, 7, 65538, 1048576, 7, 3, 1048577, 7, 3, 1048578, 7, 3, 1048579, 7, 0, 1048580, 7, 1, 1048581, 7, 2, 1048582, 7, 0, 1048583, 7, 1, 1048584, 7, 1, 1048585, 7, 2, 1048586, 7, 3, 1048587, 7, 3, 1048588, 7, 3, 1048589, 7, 131072, 1048590, 7, 131073, 1048591, 7, 131073, 1048592, 7, 131074, 1048593, 7, 3, 1048594, 7, 131072, 1048595, 7, 65540, 1179647, 7, 65538, 1114112, 7, 3, 1114113, 7, 3, 1114114, 7, 0, 1114115, 7, 131076, 1114117, 7, 131075, 1114118, 7, 131076, 1114121, 7, 65538, 1114122, 7, 3, 1114123, 7, 3, 1114124, 7, 3, 1114125, 7, 3, 1114126, 7, 3, 1114127, 7, 0, 1114128, 7, 1, 1114129, 7, 1, 1114130, 7, 2, 1114131, 7, 65536, 1245183, 7, 65538, 1179648, 7, 3, 1179649, 7, 0, 1179650, 7, 131076, 1179657, 7, 131075, 1179658, 7, 1, 1179659, 7, 2, 1179660, 7, 0, 1179661, 7, 1, 1179662, 7, 1, 1179663, 7, 131076, 1179666, 7, 131075, 1179667, 7, 131076, 1310719, 7, 131075, 1245184, 7, 1, 1245185, 7, 131076, 1245187, 7, 65539, 1245195, 7, 131075, 1245196, 7, 131076 )

[node name="Paths" type="TileMap" parent="."]
tile_set = ExtResource( 2 )
cell_size = Vector2( 16, 16 )
format = 1
tile_data = PoolIntArray( 22, 7, 65539, 23, 7, 131073, 24, 7, 131073, 25, 7, 131073, 26, 7, 65540, 65557, 7, 65539, 65558, 7, 131074, 65559, 7, 3, 65560, 7, 3, 65561, 7, 3, 65562, 7, 65536, 131087, 3, 65539, 131088, 3, 65540, 131093, 7, 131075, 131094, 7, 1, 131095, 7, 1, 131096, 7, 1, 131097, 7, 2, 131098, 7, 131072, 131099, 7, 65540, 196623, 3, 65538, 196624, 3, 65536, 196633, 7, 131075, 196634, 7, 1, 196635, 7, 131076, 262158, 3, 65539, 262159, 3, 131074, 262160, 3, 65536, 262168, 3, 65539, 262169, 3, 65540, 262170, 3, 65539, 327694, 3, 65538, 327695, 3, 3, 327696, 3, 131072, 327697, 3, 131073, 327698, 3, 65540, 327704, 3, 65538, 327705, 3, 65536, 393230, 3, 65538, 393231, 3, 3, 393232, 3, 3, 393233, 3, 3, 393234, 3, 131072, 393235, 3, 131073, 393236, 3, 131073, 393237, 3, 131073, 393238, 3, 131073, 393239, 3, 131073, 393240, 3, 131074, 393241, 3, 131072, 393242, 3, 131073, 393243, 3, 131073, 393244, 3, 65540, 458764, 3, 65539, 458765, 3, 131073, 458766, 3, 131074, 458767, 3, 3, 458768, 3, 3, 458769, 3, 3, 458770, 3, 3, 458771, 3, 3, 458772, 3, 0, 458773, 3, 1, 458774, 3, 1, 458775, 3, 1, 458776, 3, 2, 458777, 3, 3, 458778, 3, 3, 458779, 3, 3, 458780, 3, 65536, 524292, 3, 65539, 524293, 3, 131073, 524294, 3, 131073, 524295, 3, 131073, 524296, 3, 65540, 524298, 3, 65539, 524299, 3, 131073, 524300, 3, 11, 524301, 3, 1, 524302, 3, 1, 524303, 3, 2, 524304, 3, 3, 524305, 3, 3, 524306, 3, 0, 524307, 3, 1, 524308, 3, 131076, 524312, 3, 65538, 524313, 3, 0, 524314, 3, 1, 524315, 3, 1, 524316, 3, 131076, 589828, 3, 131075, 589829, 3, 2, 589830, 3, 3, 589831, 3, 3, 589832, 3, 131072, 589833, 3, 131073, 589834, 3, 131074, 589835, 3, 3, 589836, 3, 65536, 589839, 3, 131075, 589840, 3, 1, 589841, 3, 1, 589842, 3, 131076, 589848, 3, 131075, 589849, 3, 131076, 655365, 3, 131075, 655366, 3, 1, 655367, 3, 1, 655368, 3, 1, 655369, 3, 1, 655370, 3, 1, 655371, 3, 1, 655372, 3, 131076, 1245187, 7, 65539, 1245199, 9, 65539 )

[node name="Decoration" type="TileMap" parent="."]
tile_set = ExtResource( 2 )
cell_size = Vector2( 16, 16 )
format = 1
tile_data = PoolIntArray( -65535, 54, 1, -65534, 54, 1, -65533, 54, 1, -65532, 54, 1, -65531, 54, 1, -65530, 54, 1, -65529, 54, 1, -65528, 54, 1, -65527, 54, 1, -65526, 54, 1, -65525, 54, 1, 0, 67, 0, 3, 54, 1, 4, 51, 1, 5, 51, 131073, 6, 51, 131073, 7, 51, 131073, 8, 51, 131073, 9, 51, 131073, 10, 51, 131073, 11, 51, 131073, 12, 51, 2, 13, 68, 0, 14, 68, 0, 65537, 65, 0, 65539, 73, 0, 65540, 51, 65539, 65548, 51, 65539, 65555, 41, 0, 65558, 41, 0, 131076, 51, 65539, 131084, 51, 65539, 131087, 53, 0, 196610, 41, 0, 196612, 51, 65539, 196620, 51, 65539, 196627, 53, 131074, 262148, 51, 65539, 262156, 51, 65539, 327684, 51, 65537, 327685, 51, 131073, 327686, 51, 131073, 327687, 51, 131074, 327689, 51, 131072, 327690, 51, 131073, 327691, 51, 131073, 327692, 51, 65538, 327697, 68, 0, 327698, 53, 131074, 327700, 54, 1, 393220, 53, 131076, 393224, 53, 1, 393225, 53, 131075, 393228, 53, 131075, 458752, 67, 0, 524293, 69, 0, 524294, 53, 0, 589824, 26, 0, 589825, 67, 0, 589836, 53, 131076, 655364, 41, 0, 655368, 69, 0, 655372, 53, 131078, 720913, 41, 0, 786433, 67, 0, 786442, 49, 0, 786460, 73, 0, 786462, 40, 0, 851968, 67, 0, 851975, 69, 0, 851982, 53, 131075, 851984, 74, 0, 851986, 73, 0, 917507, 67, 0, 917524, 53, 131075, 983041, 67, 0, 983044, 26, 0, 983046, 67, 0, 983050, 67, 0, 983055, 74, 0, 983062, 73, 0, 983066, 74, 0, 983068, 44, 0, 983070, 40, 0, 1048587, 67, 0, 1048603, 41, 0, 1114112, 67, 0, 1114118, 53, 131074, 1114119, 74, 0, 1114135, 40, 0, 1179652, 68, 0, 1179664, 74, 0, 1179677, 73, 0, 1179678, 41, 0 )

[node name="Lamppost" type="TileMap" parent="Decoration"]
position = Vector2( 368, 96 )
tile_set = ExtResource( 2 )
cell_size = Vector2( 16, 16 )
format = 1
tile_data = PoolIntArray( -196608, 46, 0 )
script = ExtResource( 1 )

[node name="Lamppost2" type="TileMap" parent="Decoration"]
position = Vector2( 216.921, 148.94 )
tile_set = ExtResource( 2 )
cell_size = Vector2( 16, 16 )
format = 1
tile_data = PoolIntArray( -196608, 46, 0 )
script = ExtResource( 1 )

[node name="Lamppost3" type="TileMap" parent="Decoration"]
position = Vector2( 369.498, 191.642 )
tile_set = ExtResource( 2 )
cell_size = Vector2( 16, 16 )
format = 1
tile_data = PoolIntArray( -196608, 46, 0 )
script = ExtResource( 1 )

[node name="Farmable" type="TileMap" parent="."]
tile_set = ExtResource( 2 )
cell_size = Vector2( 16, 16 )
format = 1
tile_data = PoolIntArray( 65541, 60, 0, 65542, 60, 0, 65543, 60, 0, 65544, 60, 0, 65545, 60, 0, 65546, 60, 0, 65547, 60, 0, 131077, 60, 0, 131078, 60, 0, 131079, 60, 0, 131080, 60, 0, 131081, 60, 0, 131082, 60, 0, 131083, 60, 0, 196613, 60, 0, 196614, 60, 0, 196615, 60, 0, 196616, 60, 0, 196617, 60, 0, 196618, 60, 0, 196619, 60, 0, 262149, 60, 0, 262150, 60, 0, 262151, 60, 0, 262152, 60, 0, 262153, 60, 0, 262154, 60, 0, 262155, 60, 0 )

[node name="EDGE OF THE WORLD" type="TileMap" parent="."]
tile_set = ExtResource( 2 )
cell_size = Vector2( 16, 16 )
format = 1
tile_data = PoolIntArray( -196595, 28, 0, -196594, 28, 1, -196593, 28, 2, -196580, 28, 0, -196579, 28, 2, -131060, 28, 0, -131059, 28, 131076, -131058, 28, 65537, -131057, 28, 131075, -131056, 28, 1, -131055, 28, 1, -131054, 28, 1, -131053, 28, 1, -131052, 28, 1, -131051, 28, 1, -131050, 28, 1, -131049, 28, 1, -131048, 28, 1, -131047, 28, 1, -131046, 28, 1, -131045, 28, 1, -131044, 28, 131076, -131043, 28, 131075, -131042, 28, 1, -131041, 28, 1, -131040, 28, 2, -1, 51, 1, -65536, 51, 131073, -65535, 51, 131073, -65534, 51, 131073, -65533, 51, 131073, -65532, 51, 131073, -65531, 51, 131073, -65530, 51, 131073, -65529, 51, 131073, -65528, 51, 131073, -65527, 51, 131073, -65526, 51, 131073, -65525, 51, 131074, -65524, 28, 131072, -65523, 28, 131073, -65522, 28, 131073, -65521, 28, 65540, -65520, 28, 65537, -65519, 28, 65537, -65518, 28, 65537, -65517, 28, 65537, -65516, 28, 65537, -65515, 28, 65537, -65514, 28, 65537, -65513, 28, 65537, -65512, 28, 65537, -65511, 28, 65537, -65510, 28, 65537, -65509, 28, 65537, -65508, 28, 65537, -65507, 28, 65537, -65506, 28, 65537, -65505, 28, 65537, -65504, 28, 65538, 65535, 51, 65539, 15, 28, 131072, 16, 28, 131073, 17, 28, 131073, 18, 28, 131073, 19, 28, 131073, 20, 28, 65540, 21, 28, 65537, 22, 28, 65539, 23, 28, 131073, 24, 28, 131073, 25, 28, 131073, 26, 28, 65540, 27, 28, 65537, 28, 28, 65537, 29, 28, 65537, 30, 28, 65537, 31, 28, 65537, 32, 28, 131075, 33, 28, 2, 131071, 51, 65539, 65556, 28, 131072, 65557, 28, 131073, 65558, 28, 131074, 65562, 28, 65536, 65563, 28, 65537, 65564, 28, 65537, 65565, 28, 65537, 65566, 28, 65537, 65567, 28, 65537, 65568, 28, 65537, 65569, 28, 131075, 65570, 28, 2, 196607, 51, 65539, 131098, 28, 131072, 131099, 28, 131073, 131100, 28, 65540, 131101, 28, 65537, 131102, 28, 65537, 131103, 28, 65537, 131104, 28, 65537, 131105, 28, 65539, 131106, 28, 131074, 262143, 51, 65539, 196636, 28, 131072, 196637, 28, 65540, 196638, 28, 65537, 196639, 28, 65537, 196640, 28, 65539, 196641, 28, 131074, 327679, 51, 65539, 262173, 28, 65536, 262174, 28, 65537, 262175, 28, 65537, 262176, 28, 65538, 393215, 51, 65539, 327709, 28, 65536, 327710, 28, 65537, 327711, 28, 65537, 327712, 28, 65538, 458751, 51, 65539, 393245, 28, 131072, 393246, 28, 65540, 393247, 28, 65537, 393248, 28, 131075, 393249, 28, 2, 524287, 51, 65539, 458782, 28, 65536, 458783, 28, 65537, 458784, 28, 65539, 458785, 28, 131074, 589823, 51, 65539, 524318, 28, 65536, 524319, 28, 65537, 524320, 28, 65538, 655359, 51, 65539, 589852, 28, 0, 589853, 28, 1, 589854, 28, 131076, 589855, 28, 65537, 589856, 28, 65538, 720895, 51, 65539, 655388, 28, 131072, 655389, 28, 131073, 655390, 28, 131073, 655391, 28, 65540, 655392, 28, 65538, 786431, 51, 65539, 720927, 28, 131072, 720928, 28, 131074, 851967, 51, 65539, 786464, 51, 3, 917503, 51, 65539, 852000, 51, 65539, 983039, 51, 65539, 917536, 51, 65539, 1048575, 51, 65539, 983072, 51, 65539, 1114111, 51, 65539, 1048608, 51, 65539, 1179647, 51, 65539, 1114144, 51, 65539, 1245183, 51, 65539, 1179680, 51, 65539, 1310719, 51, 65537, 1245184, 51, 131073, 1245185, 51, 131073, 1245186, 51, 131073, 1245187, 51, 131073, 1245188, 51, 131073, 1245189, 51, 131073, 1245190, 51, 131073, 1245191, 51, 131073, 1245192, 51, 131073, 1245193, 51, 131073, 1245194, 51, 131073, 1245195, 51, 131073, 1245196, 51, 131073, 1245197, 51, 131073, 1245198, 51, 131073, 1245199, 51, 131073, 1245200, 51, 131073, 1245201, 51, 131073, 1245202, 51, 131073, 1245203, 51, 131073, 1245204, 51, 131073, 1245205, 51, 131073, 1245206, 51, 131073, 1245207, 51, 131073, 1245208, 51, 131073, 1245209, 51, 131073, 1245210, 51, 131073, 1245211, 51, 131073, 1245212, 51, 131073, 1245213, 51, 131073, 1245214, 51, 131073, 1245215, 51, 131073, 1245216, 51, 65538 )

[node name="Cliff" type="TileMap" parent="EDGE OF THE WORLD"]
tile_set = ExtResource( 2 )
cell_size = Vector2( 16, 16 )
format = 1
tile_data = PoolIntArray( -65525, 51, 65536, 786462, 9, 65539, 786463, 9, 131073, 786464, 9, 131073, 786465, 9, 65540, 851993, 9, 65539, 851994, 9, 131073, 851995, 9, 65540, 851997, 9, 65539, 851998, 9, 131074, 851999, 9, 3, 852000, 9, 3, 852001, 9, 65536, 917529, 9, 65538, 917530, 9, 3, 917531, 9, 131072, 917532, 9, 131073, 917533, 9, 131074, 917534, 9, 3, 917535, 9, 3, 917536, 9, 3, 917537, 9, 65536, 983065, 9, 65538, 983066, 9, 3, 983067, 9, 3, 983068, 9, 3, 983069, 9, 3, 983070, 9, 3, 983071, 9, 3, 983072, 9, 3, 983073, 9, 65536, 1048600, 9, 65539, 1048601, 9, 131074, 1048602, 9, 3, 1048603, 9, 3, 1048604, 9, 3, 1048605, 9, 3, 1048606, 9, 3, 1048607, 9, 3, 1048608, 9, 3, 1048609, 9, 65536, 1114134, 9, 65539, 1114135, 9, 131073, 1114136, 9, 131074, 1114137, 9, 3, 1114138, 9, 3, 1114139, 9, 3, 1114140, 9, 3, 1114141, 9, 3, 1114142, 9, 3, 1114143, 9, 3, 1114144, 9, 3, 1114145, 9, 65536, 1179668, 9, 65539, 1179669, 9, 131073, 1179670, 9, 131074, 1179671, 9, 3, 1179672, 9, 3, 1179673, 9, 3, 1179674, 9, 3, 1179675, 9, 3, 1179676, 9, 3, 1179677, 9, 3, 1179678, 9, 3, 1179679, 9, 3, 1179680, 9, 3, 1179681, 9, 65536, 1245203, 9, 65539, 1245204, 9, 131075, 1245205, 9, 1, 1245206, 9, 1, 1245207, 9, 1, 1245208, 9, 1, 1245209, 9, 1, 1245210, 9, 1, 1245211, 9, 1, 1245212, 9, 1, 1245213, 9, 1, 1245214, 9, 1, 1245215, 9, 1, 1245216, 9, 1, 1245217, 9, 131076 )

[node name="Top Decorations" type="TileMap" parent="EDGE OF THE WORLD"]
tile_set = ExtResource( 2 )
cell_size = Vector2( 16, 16 )
format = 1
tile_data = PoolIntArray( -262128, 41, 0, -196586, 40, 0, -131064, 42, 0, -131052, 74, 0, -131047, 68, 0, -131045, 55, 131078, -1, 51, 1, -65536, 51, 131073, -65535, 51, 131073, -65534, 51, 131073, -65533, 51, 131073, -65532, 51, 131073, -65531, 51, 131073, -65530, 51, 131073, -65529, 51, 131073, -65528, 51, 131073, -65527, 51, 131073, -65526, 51, 131073, -65525, 51, 131073, -65524, 51, 131074, -65515, 72, 0, -65510, 55, 131076, -65508, 74, 0, -65506, 41, 0, 65535, 51, 65539, 3, 53, 0, 131071, 51, 65539, 65556, 53, 1, 196607, 51, 65539, 131101, 68, 0, 131104, 55, 131076, 262143, 51, 65539, 196609, 53, 0, 196638, 69, 0, 327679, 51, 65539, 262175, 55, 131074, 393215, 51, 65539, 327682, 53, 0, 327704, 53, 131078, 327705, 53, 0, 327708, 53, 131075, 327711, 40, 0, 458751, 51, 65539, 393239, 53, 0, 524287, 51, 65539, 458783, 55, 131074, 589823, 51, 65539, 524319, 73, 0, 655359, 51, 65539, 589827, 53, 1, 589853, 73, 0, 589855, 55, 131078, 720895, 51, 65539, 786431, 51, 65539, 720927, 53, 0, 851967, 51, 65539, 786464, 51, 3, 917503, 51, 65539, 852000, 51, 65539, 983039, 51, 65539, 917531, 53, 0, 917536, 51, 65539, 1048575, 51, 65539, 983053, 53, 1, 983072, 51, 65539, 1114111, 51, 65539, 1048580, 53, 0, 1048582, 53, 1, 1048584, 53, 131078, 1048601, 53, 0, 1048608, 51, 65539, 1179647, 51, 65539, 1114121, 53, 0, 1114144, 51, 65539, 1245183, 51, 65539, 1179659, 53, 0, 1179661, 53, 0, 1179670, 53, 1, 1179680, 51, 65539, 1310719, 51, 65537, 1245184, 51, 131073, 1245185, 51, 131073, 1245186, 51, 131073, 1245187, 51, 131073, 1245188, 51, 131073, 1245189, 51, 131073, 1245190, 51, 131074, 1245192, 51, 131072, 1245193, 51, 131073, 1245194, 51, 131073, 1245195, 51, 131073, 1245196, 51, 131073, 1245197, 51, 131073, 1245198, 51, 131073, 1245199, 51, 131073, 1245200, 51, 131073, 1245201, 51, 131074, 1245203, 51, 131072, 1245204, 51, 131073, 1245205, 51, 131073, 1245206, 51, 131073, 1245207, 51, 131073, 1245208, 51, 131073, 1245209, 51, 131073, 1245210, 51, 131073, 1245211, 51, 131073, 1245212, 51, 131073, 1245213, 51, 131073, 1245214, 51, 131073, 1245215, 51, 131073, 1245216, 51, 65538 )

[node name="House" type="TileMap" parent="EDGE OF THE WORLD/Top Decorations"]
position = Vector2( 240.249, 55.4592 )
tile_set = ExtResource( 2 )
cell_size = Vector2( 16, 16 )
format = 1
tile_data = PoolIntArray( -262145, 62, 0, -65534, 70, 0, -65533, 70, 0 )
script = ExtResource( 1 )

[node name="Market" type="TileMap" parent="EDGE OF THE WORLD/Top Decorations"]
position = Vector2( 383.964, 95.7929 )
tile_set = ExtResource( 2 )
cell_size = Vector2( 16, 16 )
format = 1
tile_data = PoolIntArray( -262144, 63, 0, -65534, 71, 0, -65533, 71, 0 )
script = ExtResource( 1 )
