{
	"color": "#ffffa500",
	"description": "This guy, he just sells carrot seeds",
	"display_name": "",
	"display_name_bool": false,
	"id": "character-1632053695.json",
	"mirror_portraits": false,
	"name": "Finlight Eldersson",
	"nickname": "",
	"nickname_bool": false,
	"offset_x": -150,
	"offset_y": -200,
	"portraits": [
		{
			"name": "Default",
			"path": "res://src/assets/characters/finlight_portrait.png"
		}
	],
	"scale": 400
}
