[gd_scene load_steps=8 format=2]

[ext_resource path="res://src/assets/characters/Character1.tres" type="SpriteFrames" id=1]
[ext_resource path="res://src/scripts/Player.gd" type="Script" id=2]
[ext_resource path="res://src/components/CharacterShadow.tscn" type="PackedScene" id=3]
[ext_resource path="res://src/scripts/InputManager.gd" type="Script" id=4]
[ext_resource path="res://src/scripts/HitDetector.gd" type="Script" id=5]

[sub_resource type="RectangleShape2D" id=1]

[sub_resource type="RectangleShape2D" id=2]
extents = Vector2( 4, 4 )

[node name="KinematicBody2D" type="KinematicBody2D"]
script = ExtResource( 2 )

[node name="CharacterShadow" parent="." instance=ExtResource( 3 )]

[node name="AnimatedSprite" type="AnimatedSprite" parent="."]
frames = ExtResource( 1 )
animation = "stand_east"

[node name="CollisionShape2D" type="CollisionShape2D" parent="."]
position = Vector2( 0, 28 )
shape = SubResource( 1 )

[node name="HitDetector" type="Area2D" parent="."]
position = Vector2( 32, 16 )
collision_layer = 0
collision_mask = 3
script = ExtResource( 5 )

[node name="CollisionShape2D" type="CollisionShape2D" parent="HitDetector"]
shape = SubResource( 2 )

[node name="InputManager" type="Node" parent="."]
script = ExtResource( 4 )
