[gd_scene load_steps=3 format=2]

[ext_resource path="res://src/scripts/CharacterShadow.gd" type="Script" id=1]
[ext_resource path="res://src/assets/characters/oval.png" type="Texture" id=2]

[node name="CharacterShadow" type="Sprite"]
modulate = Color( 0, 0, 0, 0.2 )
texture = ExtResource( 2 )
offset = Vector2( 0, 32 )
script = ExtResource( 1 )
