{
	"events": [
		{
			"action": "join",
			"character": "character-1625395541.json",
			"event_id": "dialogic_002",
			"mirror": false,
			"portrait": "",
			"position": {
				"0": true,
				"1": false,
				"2": false,
				"3": false,
				"4": false
			}
		},
		{
			"action": "join",
			"character": "character-1635611820.json",
			"event_id": "dialogic_002",
			"mirror": false,
			"portrait": "",
			"position": {
				"0": false,
				"1": false,
				"2": false,
				"3": false,
				"4": true
			}
		},
		{
			"character": "character-1635611820.json",
			"event_id": "dialogic_001",
			"portrait": "",
			"text": "Soup, you have arrived!"
		},
		{
			"character": "character-1625395541.json",
			"event_id": "dialogic_001",
			"portrait": "",
			"text": "Father! I have arrived! I forgot how much I hated taking the coach."
		},
		{
			"character": "character-1635611820.json",
			"event_id": "dialogic_001",
			"portrait": "",
			"text": "Public transport is a necessary evil. Don't worry, you'll get your car fixed in no time.\nI have to run, your mother needs me to pick up some lozenges, but here's everything you need for the carrot farming."
		},
		{
			"character": "character-1625395541.json",
			"event_id": "dialogic_001",
			"portrait": "",
			"text": "Yeah I wanted to ask about that. Am I really going to be able to fix my car by selling carrots?\nThey're not exactly a hot commodity."
		},
		{
			"character": "character-1635611820.json",
			"event_id": "dialogic_001",
			"portrait": "",
			"text": "You remember Mr Eldersson?"
		},
		{
			"character": "character-1625395541.json",
			"event_id": "dialogic_001",
			"portrait": "",
			"text": "Vaguely. Phantom? Thin...lamp?"
		},
		{
			"character": "character-1635611820.json",
			"event_id": "dialogic_001",
			"portrait": "",
			"text": "Finlight! Anyway, he's selling overpriced carrot seeds at the moment but also buying the carrots grown from them?\nWe've got an okra order we're obligated to organise but we've got this little fenced-in patch over  there you can use to grow his carrots.\nHere, I've got two seeds for you to get started with."
		},
		{
			"character": "character-1625395541.json",
			"event_id": "dialogic_001",
			"portrait": "",
			"text": "Two? Okay...and then I sell them to Finlight and then buy more seeds?"
		},
		{
			"character": "character-1635611820.json",
			"event_id": "dialogic_001",
			"portrait": "",
			"text": "Yeah he'll just trade you carrots for seeds directly. He's lost the key to his shop so he's just standing outside it these days, you can't miss him.\nOh yeah, instructions:"
		},
		{
			"character": "character-1635611820.json",
			"event_id": "dialogic_001",
			"portrait": "",
			"text": " You'll need to dig the land before you can plant, and you'll need to water the carrots. They can go a day without being watered but any longer and they'll die.\nThey take three days to grow. You'll see I've labelled the shovel, watering can and seeds 2, 3 and 4 respectively, and what's my number one rule?"
		},
		{
			"character": "character-1625395541.json",
			"event_id": "dialogic_001",
			"portrait": "",
			"text": "Sigh...\"your hands are number one\"."
		},
		{
			"character": "character-1635611820.json",
			"event_id": "dialogic_001",
			"portrait": "",
			"text": "Good lad. You'll need your hands to dig the carrots out.\nHow much did you need to fix your car again? £480?"
		},
		{
			"character": "character-1625395541.json",
			"event_id": "dialogic_001",
			"portrait": "",
			"text": "Yep!"
		},
		{
			"character": "character-1635611820.json",
			"event_id": "dialogic_001",
			"portrait": "",
			"text": "You'll have it in no time. Oh yeah, make sure you don't buy too many seeds, you've only got so much planting space.\nRight, I think that's everything you need to know. We'll drop by later to see how you're doing! Love you Soup!"
		},
		{
			"character": "character-1625395541.json",
			"event_id": "dialogic_001",
			"portrait": "",
			"text": "Love you too dad! Say hi to mum for me!"
		},
		{
			"action": "leaveall",
			"character": "[All]",
			"event_id": "dialogic_003"
		}
	],
	"metadata": {
		"dialogic-version": "1.2.4",
		"file": "timeline-1635611784.json",
		"name": "introduction"
	}
}
