{
	"events": [
		{
			"action": "join",
			"character": "character-1625395541.json",
			"event_id": "dialogic_002",
			"mirror": false,
			"portrait": "",
			"position": {
				"0": true,
				"1": false,
				"2": false,
				"3": false,
				"4": false
			}
		},
		{
			"action": "join",
			"character": "character-1635611820.json",
			"event_id": "dialogic_002",
			"mirror": false,
			"portrait": "",
			"position": {
				"0": false,
				"1": false,
				"2": false,
				"3": false,
				"4": true
			}
		},
		{
			"character": "character-1635611820.json",
			"event_id": "dialogic_001",
			"portrait": "",
			"text": "Soup what happened."
		},
		{
			"character": "character-1625395541.json",
			"event_id": "dialogic_001",
			"portrait": "",
			"text": "I uh. I forgot to water my  carrots. And they all died. And I can't afford any more seeds."
		},
		{
			"character": "character-1635611820.json",
			"event_id": "dialogic_001",
			"portrait": "",
			"text": "Unbelievable."
		},
		{
			"action": "leaveall",
			"character": "[All]",
			"event_id": "dialogic_003"
		}
	],
	"metadata": {
		"dialogic-version": "1.2.4",
		"file": "timeline-1635700859.json",
		"name": "game_lost"
	}
}
