{
	"events": [
		{
			"action": "join",
			"character": "character-1625395541.json",
			"event_id": "dialogic_002",
			"mirror": false,
			"portrait": "",
			"position": {
				"0": true,
				"1": false,
				"2": false,
				"3": false,
				"4": false
			}
		},
		{
			"action": "join",
			"character": "character-1626471040.json",
			"event_id": "dialogic_002",
			"mirror": false,
			"portrait": "",
			"position": {
				"0": false,
				"1": false,
				"2": false,
				"3": false,
				"4": true
			}
		},
		{
			"character": "character-1625395541.json",
			"event_id": "dialogic_001",
			"portrait": "",
			"text": "Hello Mr. Plume!"
		},
		{
			"character": "character-1626471040.json",
			"event_id": "dialogic_001",
			"portrait": "",
			"text": "Oh, good morning Soup. Steven will do."
		},
		{
			"character": "character-1625395541.json",
			"event_id": "dialogic_001",
			"portrait": "",
			"text": "Okay! How's the lake today?"
		},
		{
			"character": "character-1626471040.json",
			"event_id": "dialogic_001",
			"portrait": "",
			"text": "Quite lively today actually! That family of Gadwall's is around, and I think I might have spied a Garganey earlier."
		},
		{
			"character": "character-1625395541.json",
			"event_id": "dialogic_001",
			"portrait": "",
			"text": "Oh...wow?"
		},
		{
			"character": "character-1626471040.json",
			"event_id": "dialogic_001",
			"portrait": "",
			"text": "Yes! Plenty of Ruddy's and the odd Mallard as usual but they don't call this the duck capital of the East Midlands for nothing!"
		},
		{
			"character": "character-1625395541.json",
			"event_id": "dialogic_001",
			"portrait": "",
			"text": "No they do not! Wow, I need to read up on ducks."
		},
		{
			"character": "character-1626471040.json",
			"event_id": "dialogic_001",
			"portrait": "",
			"text": "Fascinating birds! Let me know if you have any questions!"
		},
		{
			"character": "character-1625395541.json",
			"event_id": "dialogic_001",
			"portrait": "",
			"text": "I will! Thank you Mr. Plume! Steven!"
		},
		{
			"action": "leaveall",
			"character": "[All]",
			"event_id": "dialogic_003"
		}
	],
	"metadata": {
		"dialogic-version": "1.2.4",
		"file": "timeline-1636574612.json",
		"name": "steven-day10"
	}
}
