{
	"events": [
		{
			"action": "join",
			"character": "character-1625395541.json",
			"event_id": "dialogic_002",
			"mirror": false,
			"portrait": "",
			"position": {
				"0": true,
				"1": false,
				"2": false,
				"3": false,
				"4": false
			}
		},
		{
			"action": "join",
			"character": "character-1626471040.json",
			"event_id": "dialogic_002",
			"mirror": false,
			"portrait": "",
			"position": {
				"0": false,
				"1": false,
				"2": false,
				"3": false,
				"4": true
			}
		},
		{
			"character": "character-1625395541.json",
			"event_id": "dialogic_001",
			"portrait": "",
			"text": "Good morning Steven!"
		},
		{
			"character": "character-1626471040.json",
			"event_id": "dialogic_001",
			"portrait": "",
			"text": "Oh, hello."
		},
		{
			"character": "character-1625395541.json",
			"event_id": "dialogic_001",
			"portrait": "",
			"text": "Lovely day isn't it?"
		},
		{
			"character": "character-1626471040.json",
			"event_id": "dialogic_001",
			"portrait": "",
			"text": "Yes."
		},
		{
			"character": "character-1625395541.json",
			"event_id": "dialogic_001",
			"portrait": "",
			"text": "Got any plans for today?"
		},
		{
			"character": "character-1626471040.json",
			"event_id": "dialogic_001",
			"portrait": "",
			"text": "Ah, yes, I do."
		},
		{
			"action": "leaveall",
			"character": "character-1626471040.json",
			"event_id": "dialogic_003"
		},
		{
			"character": "character-1625395541.json",
			"event_id": "dialogic_001",
			"portrait": "",
			"text": "Hmm."
		},
		{
			"action": "leaveall",
			"character": "character-1625395541.json",
			"event_id": "dialogic_003"
		}
	],
	"metadata": {
		"dialogic-version": "1.2.4",
		"file": "timeline-1628945845.json",
		"name": "steven-day4"
	}
}
