{
	"glossary": [
		{
			"extra": "Delicious!",
			"id": "1632058044-146",
			"name": "carrot",
			"text": "An orange vegetable.",
			"title": "Carrot",
			"type": 1
		}
	],
	"variables": [
		{
			"id": "1627825961-970",
			"name": "met-janet",
			"type": 0,
			"value": "0"
		},
		{
			"id": "1632057901-366",
			"name": "money",
			"type": 0,
			"value": "0"
		},
		{
			"id": "1633983245-648",
			"name": "janet-rep",
			"type": 0,
			"value": "0"
		},
		{
			"id": "1633983256-787",
			"name": "steven-rep",
			"type": 0,
			"value": "0"
		},
		{
			"id": "1633985745-146",
			"name": "scene_played",
			"type": 0,
			"value": ""
		},
		{
			"id": "1633983264-366",
			"name": "finlight-rep",
			"type": 0,
			"value": "0"
		},
		{
			"id": "1638023671-725",
			"name": "dad-rep",
			"type": 0,
			"value": "0"
		}
	]
}
