{
  "day-1": {
    "characters": [
      {
        "name": "Janet",
        "position": {
          "x": 400,
          "y": 400
        },
        "timelines": [
          {
            "name": "Welcome1"
          }
        ]
      }
    ]
  },
  "day-2": {
    "characters": [
      {
        "name": "Steven",
        "position": {
          "x": 200,
          "y": 200
        },
        "timelines": [
          {
            "name": "Welcome2"
          },
          {
            "name": "News1"
          }
        ]
      }
    ]
  }
}